^D:\DEV\TOSLINK_SWITCHER\MPLAB_X\DIOLAN-PLUS2-BOOTLOADER\FW_UPDATE\BUFFER\BUFFER.CPP|D:\DEV\TOSLINK_SWITCHER\MPLAB_X\DIOLAN-PLUS2-BOOTLOADER\FW_UPDATE\BUFFER\ITERATOR.CPP|D:\DEV\TOSLINK_SWITCHER\MPLAB_X\DIOLAN-PLUS2-BOOTLOADER\FW_UPDATE\DTRACE\DTRACE.CPP|D:\DEV\TOSLINK_SWITCHER\MPLAB_X\DIOLAN-PLUS2-BOOTLOADER\FW_UPDATE\EXCEPTION\EXCEPTION.CPP|D:\DEV\TOSLINK_SWITCHER\MPLAB_X\DIOLAN-PLUS2-BOOTLOADER\FW_UPDATE\FU_USAGE.CPP|D:\DEV\TOSLINK_SWITCHER\MPLAB_X\DIOLAN-PLUS2-BOOTLOADER\FW_UPDATE\IMAGE\ARGUMENTIMAGE.CPP|D:\DEV\TOSLINK_SWITCHER\MPLAB_X\DIOLAN-PLUS2-BOOTLOADER\FW_UPDATE\IMAGE\BINIMAGE.CPP|D:\DEV\TOSLINK_SWITCHER\MPLAB_X\DIOLAN-PLUS2-BOOTLOADER\FW_UPDATE\IMAGE\COUT_IMAGE.CPP|D:\DEV\TOSLINK_SWITCHER\MPLAB_X\DIOLAN-PLUS2-BOOTLOADER\FW_UPDATE\IMAGE\INTEL_HEX_IMAGE.CPP|D:\DEV\TOSLINK_SWITCHER\MPLAB_X\DIOLAN-PLUS2-BOOTLOADER\FW_UPDATE\IMAGE\INTEL_HEX_RECORD.CPP|D:\DEV\TOSLINK_SWITCHER\MPLAB_X\DIOLAN-PLUS2-BOOTLOADER\FW_UPDATE\MAIN.CPP|D:\DEV\TOSLINK_SWITCHER\MPLAB_X\DIOLAN-PLUS2-BOOTLOADER\FW_UPDATE\PARSER\PARAMETER.CPP|D:\DEV\TOSLINK_SWITCHER\MPLAB_X\DIOLAN-PLUS2-BOOTLOADER\FW_UPDATE\PARSER\PARAMETERS.CPP|D:\DEV\TOSLINK_SWITCHER\MPLAB_X\DIOLAN-PLUS2-BOOTLOADER\FW_UPDATE\PARSER\PARSER.CPP|D:\DEV\TOSLINK_SWITCHER\MPLAB_X\DIOLAN-PLUS2-BOOTLOADER\FW_UPDATE\PARSER\USAGE.CPP|D:\DEV\TOSLINK_SWITCHER\MPLAB_X\DIOLAN-PLUS2-BOOTLOADER\FW_UPDATE\PARSER\USAGE_DESCRIPTOR.CPP|D:\DEV\TOSLINK_SWITCHER\MPLAB_X\DIOLAN-PLUS2-BOOTLOADER\FW_UPDATE\PARSER\USAGE_UPDATE.CPP|D:\DEV\TOSLINK_SWITCHER\MPLAB_X\DIOLAN-PLUS2-BOOTLOADER\FW_UPDATE\PIC_BOOTLOADER.CPP
D:\DEV\TOSLINK_SWITCHER\MPLAB_X\DIOLAN-PLUS2-BOOTLOADER\FW_UPDATE\RELEASE\VC140.PDB
D:\DEV\TOSLINK_SWITCHER\MPLAB_X\DIOLAN-PLUS2-BOOTLOADER\FW_UPDATE\RELEASE\USAGE_UPDATE.OBJ
D:\DEV\TOSLINK_SWITCHER\MPLAB_X\DIOLAN-PLUS2-BOOTLOADER\FW_UPDATE\RELEASE\USAGE_DESCRIPTOR.OBJ
D:\DEV\TOSLINK_SWITCHER\MPLAB_X\DIOLAN-PLUS2-BOOTLOADER\FW_UPDATE\RELEASE\USAGE.OBJ
D:\DEV\TOSLINK_SWITCHER\MPLAB_X\DIOLAN-PLUS2-BOOTLOADER\FW_UPDATE\RELEASE\PARSER.OBJ
D:\DEV\TOSLINK_SWITCHER\MPLAB_X\DIOLAN-PLUS2-BOOTLOADER\FW_UPDATE\RELEASE\PARAMETERS.OBJ
D:\DEV\TOSLINK_SWITCHER\MPLAB_X\DIOLAN-PLUS2-BOOTLOADER\FW_UPDATE\RELEASE\PARAMETER.OBJ
D:\DEV\TOSLINK_SWITCHER\MPLAB_X\DIOLAN-PLUS2-BOOTLOADER\FW_UPDATE\RELEASE\MAIN.OBJ
D:\DEV\TOSLINK_SWITCHER\MPLAB_X\DIOLAN-PLUS2-BOOTLOADER\FW_UPDATE\RELEASE\INTEL_HEX_RECORD.OBJ
D:\DEV\TOSLINK_SWITCHER\MPLAB_X\DIOLAN-PLUS2-BOOTLOADER\FW_UPDATE\RELEASE\INTEL_HEX_IMAGE.OBJ
D:\DEV\TOSLINK_SWITCHER\MPLAB_X\DIOLAN-PLUS2-BOOTLOADER\FW_UPDATE\RELEASE\COUT_IMAGE.OBJ
D:\DEV\TOSLINK_SWITCHER\MPLAB_X\DIOLAN-PLUS2-BOOTLOADER\FW_UPDATE\RELEASE\BINIMAGE.OBJ
D:\DEV\TOSLINK_SWITCHER\MPLAB_X\DIOLAN-PLUS2-BOOTLOADER\FW_UPDATE\RELEASE\ARGUMENTIMAGE.OBJ
D:\DEV\TOSLINK_SWITCHER\MPLAB_X\DIOLAN-PLUS2-BOOTLOADER\FW_UPDATE\RELEASE\FU_USAGE.OBJ
D:\DEV\TOSLINK_SWITCHER\MPLAB_X\DIOLAN-PLUS2-BOOTLOADER\FW_UPDATE\RELEASE\EXCEPTION.OBJ
D:\DEV\TOSLINK_SWITCHER\MPLAB_X\DIOLAN-PLUS2-BOOTLOADER\FW_UPDATE\RELEASE\DTRACE.OBJ
D:\DEV\TOSLINK_SWITCHER\MPLAB_X\DIOLAN-PLUS2-BOOTLOADER\FW_UPDATE\RELEASE\ITERATOR.OBJ
D:\DEV\TOSLINK_SWITCHER\MPLAB_X\DIOLAN-PLUS2-BOOTLOADER\FW_UPDATE\RELEASE\BUFFER.OBJ
^D:\DEV\TOSLINK_SWITCHER\MPLAB_X\DIOLAN-PLUS2-BOOTLOADER\FW_UPDATE\BUFFER\BUFFER.CPP
D:\DEV\TOSLINK_SWITCHER\MPLAB_X\DIOLAN-PLUS2-BOOTLOADER\FW_UPDATE\RELEASE\BUFFER.OBJ
^D:\DEV\TOSLINK_SWITCHER\MPLAB_X\DIOLAN-PLUS2-BOOTLOADER\FW_UPDATE\BUFFER\ITERATOR.CPP
D:\DEV\TOSLINK_SWITCHER\MPLAB_X\DIOLAN-PLUS2-BOOTLOADER\FW_UPDATE\RELEASE\ITERATOR.OBJ
^D:\DEV\TOSLINK_SWITCHER\MPLAB_X\DIOLAN-PLUS2-BOOTLOADER\FW_UPDATE\DTRACE\DTRACE.CPP
D:\DEV\TOSLINK_SWITCHER\MPLAB_X\DIOLAN-PLUS2-BOOTLOADER\FW_UPDATE\RELEASE\DTRACE.OBJ
^D:\DEV\TOSLINK_SWITCHER\MPLAB_X\DIOLAN-PLUS2-BOOTLOADER\FW_UPDATE\EXCEPTION\EXCEPTION.CPP
D:\DEV\TOSLINK_SWITCHER\MPLAB_X\DIOLAN-PLUS2-BOOTLOADER\FW_UPDATE\RELEASE\EXCEPTION.OBJ
^D:\DEV\TOSLINK_SWITCHER\MPLAB_X\DIOLAN-PLUS2-BOOTLOADER\FW_UPDATE\FU_USAGE.CPP
D:\DEV\TOSLINK_SWITCHER\MPLAB_X\DIOLAN-PLUS2-BOOTLOADER\FW_UPDATE\RELEASE\FU_USAGE.OBJ
^D:\DEV\TOSLINK_SWITCHER\MPLAB_X\DIOLAN-PLUS2-BOOTLOADER\FW_UPDATE\IMAGE\ARGUMENTIMAGE.CPP
D:\DEV\TOSLINK_SWITCHER\MPLAB_X\DIOLAN-PLUS2-BOOTLOADER\FW_UPDATE\RELEASE\ARGUMENTIMAGE.OBJ
^D:\DEV\TOSLINK_SWITCHER\MPLAB_X\DIOLAN-PLUS2-BOOTLOADER\FW_UPDATE\IMAGE\BINIMAGE.CPP
D:\DEV\TOSLINK_SWITCHER\MPLAB_X\DIOLAN-PLUS2-BOOTLOADER\FW_UPDATE\RELEASE\BINIMAGE.OBJ
^D:\DEV\TOSLINK_SWITCHER\MPLAB_X\DIOLAN-PLUS2-BOOTLOADER\FW_UPDATE\IMAGE\COUT_IMAGE.CPP
D:\DEV\TOSLINK_SWITCHER\MPLAB_X\DIOLAN-PLUS2-BOOTLOADER\FW_UPDATE\RELEASE\COUT_IMAGE.OBJ
^D:\DEV\TOSLINK_SWITCHER\MPLAB_X\DIOLAN-PLUS2-BOOTLOADER\FW_UPDATE\IMAGE\INTEL_HEX_IMAGE.CPP
D:\DEV\TOSLINK_SWITCHER\MPLAB_X\DIOLAN-PLUS2-BOOTLOADER\FW_UPDATE\RELEASE\INTEL_HEX_IMAGE.OBJ
^D:\DEV\TOSLINK_SWITCHER\MPLAB_X\DIOLAN-PLUS2-BOOTLOADER\FW_UPDATE\IMAGE\INTEL_HEX_RECORD.CPP
D:\DEV\TOSLINK_SWITCHER\MPLAB_X\DIOLAN-PLUS2-BOOTLOADER\FW_UPDATE\RELEASE\INTEL_HEX_RECORD.OBJ
^D:\DEV\TOSLINK_SWITCHER\MPLAB_X\DIOLAN-PLUS2-BOOTLOADER\FW_UPDATE\MAIN.CPP
D:\DEV\TOSLINK_SWITCHER\MPLAB_X\DIOLAN-PLUS2-BOOTLOADER\FW_UPDATE\RELEASE\MAIN.OBJ
^D:\DEV\TOSLINK_SWITCHER\MPLAB_X\DIOLAN-PLUS2-BOOTLOADER\FW_UPDATE\PARSER\PARAMETER.CPP
D:\DEV\TOSLINK_SWITCHER\MPLAB_X\DIOLAN-PLUS2-BOOTLOADER\FW_UPDATE\RELEASE\PARAMETER.OBJ
^D:\DEV\TOSLINK_SWITCHER\MPLAB_X\DIOLAN-PLUS2-BOOTLOADER\FW_UPDATE\PARSER\PARAMETERS.CPP
D:\DEV\TOSLINK_SWITCHER\MPLAB_X\DIOLAN-PLUS2-BOOTLOADER\FW_UPDATE\RELEASE\PARAMETERS.OBJ
^D:\DEV\TOSLINK_SWITCHER\MPLAB_X\DIOLAN-PLUS2-BOOTLOADER\FW_UPDATE\PARSER\PARSER.CPP
D:\DEV\TOSLINK_SWITCHER\MPLAB_X\DIOLAN-PLUS2-BOOTLOADER\FW_UPDATE\RELEASE\PARSER.OBJ
^D:\DEV\TOSLINK_SWITCHER\MPLAB_X\DIOLAN-PLUS2-BOOTLOADER\FW_UPDATE\PARSER\USAGE.CPP
D:\DEV\TOSLINK_SWITCHER\MPLAB_X\DIOLAN-PLUS2-BOOTLOADER\FW_UPDATE\RELEASE\USAGE.OBJ
^D:\DEV\TOSLINK_SWITCHER\MPLAB_X\DIOLAN-PLUS2-BOOTLOADER\FW_UPDATE\PARSER\USAGE_DESCRIPTOR.CPP
D:\DEV\TOSLINK_SWITCHER\MPLAB_X\DIOLAN-PLUS2-BOOTLOADER\FW_UPDATE\RELEASE\USAGE_DESCRIPTOR.OBJ
^D:\DEV\TOSLINK_SWITCHER\MPLAB_X\DIOLAN-PLUS2-BOOTLOADER\FW_UPDATE\PARSER\USAGE_UPDATE.CPP
D:\DEV\TOSLINK_SWITCHER\MPLAB_X\DIOLAN-PLUS2-BOOTLOADER\FW_UPDATE\RELEASE\USAGE_UPDATE.OBJ
^D:\DEV\TOSLINK_SWITCHER\MPLAB_X\DIOLAN-PLUS2-BOOTLOADER\FW_UPDATE\PIC_BOOTLOADER.CPP
D:\DEV\TOSLINK_SWITCHER\MPLAB_X\DIOLAN-PLUS2-BOOTLOADER\FW_UPDATE\RELEASE\VC140.PDB
D:\DEV\TOSLINK_SWITCHER\MPLAB_X\DIOLAN-PLUS2-BOOTLOADER\FW_UPDATE\RELEASE\PIC_BOOTLOADER.OBJ
