Qty;Value;Device;Package;Parts;Description
3;;FSMRAJH;FSMRA4JH;AUT/MAN, CHAN, FUNC;Right angle, through hole tactile switch
4; ;PLR135/T;PLR135/T10;RX1, RX2, RX3, RX4;TOSLINK receiver
2; ;PLT133/T;PLR135/T10;TX1, TX2;TOSLINK transmitter
8;.1u;CAPACITOR_NPOL-0805;C805;C2, C3, C4, C9, C10, C11, C12, C13;Non-Polarized capacitor in various packages
1;.22u;CAPACITOR_NPOL-0805;C805;C14;Non-Polarized capacitor in various packages
2;10K;RESISTORR805-0805;R805;R1, R2;
4;10nF;CAPACITOR_NPOL-0805;C805;C5, C6, C7, C8;Non-Polarized capacitor in various packages
1;10u;CAPACITOR_POL-SMC_A;SMC_A;C1;Polarized capacitor in various packages
6;1K;RESISTORR805-0805;R805;R3, R4, R5, R6, R7, R8;
1;;74HCT4052D;SO16;IC1;Dual 4-channel ANALOG MULTIPLEXER
1;750mA;FUSE_PTC-0805;PTC0805;F1;Resettable PTC
1;Blue;LED5MM;LED5MM;AUTO;
1;47uH;CB2518T470K;1007(2518);L1;
1;;CON-USB-F-MINI-B;CONN_USB_MINI-B;USB;USB Female connector
1;;CON_HEADER_1X02-PTH;HEADER_1X2;SUP1;
1;;CON_HEADER_PRG_PIC_ICSP0.1INCH_B;HEADER_PRG_1X05_ICSP_B;ICSP;5-pin PIC In Circuit Serial Programming header
1;EXT-IO_MALE;EXT-IO_MALE;HEADER_2X5;EXP-IO;
4;Green/Red;DUOLED-5MM-RGC;DUO-LED-5MM;CH1, CH2, CH3, CH4;
1;;PIC18F25K50;SOIC28;IC2;USB Microcontrollers with nanoWatt Technology High-Performance, Enhanced Flash, 28/40/44-Pin,
1;Red;LED5MM;LED5MM;PWR;
